<?xml version="1.0" encoding="UTF-8" standalone="no"?>
<svg
   xmlns:dc="http://purl.org/dc/elements/1.1/"
   xmlns:cc="http://creativecommons.org/ns#"
   xmlns:rdf="http://www.w3.org/1999/02/22-rdf-syntax-ns#"
   xmlns:svg="http://www.w3.org/2000/svg"
   xmlns="http://www.w3.org/2000/svg"
   fill="#ffffff"
   height="40"
   viewBox="0 0 18 20"
   width="36"
   version="1.1"
   id="svg4">
  <metadata
     id="metadata10">
    <rdf:RDF>
      <cc:Work
         rdf:about="">
        <dc:format>image/svg+xml</dc:format>
        <dc:type
           rdf:resource="http://purl.org/dc/dcmitype/StillImage" />
        <dc:title></dc:title>
      </cc:Work>
    </rdf:RDF>
  </metadata>
  <defs
     id="defs8" />
  <path
     d="M 6,9 H 4 v 2 h 2 z m 4,0 H 8 v 2 h 2 z m 4,0 h -2 v 2 h 2 z M 16,2 H 15 V 0 H 13 V 2 H 5 V 0 H 3 V 2 H 2 C 0.89,2 0.01,2.9 0.01,4 L 0,18 c 0,1.1 0.89,2 2,2 h 14 c 1.1,0 2,-0.9 2,-2 V 4 C 18,2.9 17.1,2 16,2 Z m 0,16 H 2 V 7 h 14 z"
     id="path2"
     style="fill:#000000;fill-opacity:1" />
</svg>
