<?xml version="1.0" encoding="UTF-8" standalone="no"?>
<svg
   xmlns:dc="http://purl.org/dc/elements/1.1/"
   xmlns:cc="http://creativecommons.org/ns#"
   xmlns:rdf="http://www.w3.org/1999/02/22-rdf-syntax-ns#"
   xmlns:svg="http://www.w3.org/2000/svg"
   xmlns="http://www.w3.org/2000/svg"
   width="143.88239mm"
   height="137.54312mm"
   viewBox="0 0 143.88239 137.54312"
   version="1.1"
   id="svg8">
  <defs
     id="defs2" />
  <metadata
     id="metadata5">
    <rdf:RDF>
      <cc:Work
         rdf:about="">
        <dc:format>image/svg+xml</dc:format>
        <dc:type
           rdf:resource="http://purl.org/dc/dcmitype/StillImage" />
        <dc:title></dc:title>
      </cc:Work>
    </rdf:RDF>
  </metadata>
  <g
     id="layer1"
     transform="translate(75.169182,74.193165)">
    <path
       style="fill:none;fill-opacity:1;fill-rule:evenodd;stroke:#ffae00;stroke-width:13.2292;stroke-linecap:round;stroke-linejoin:round;stroke-miterlimit:4;stroke-dasharray:none;stroke-opacity:1;paint-order:stroke fill markers"
       id="path835"
       d="M 23.502461,8.4314941 39.670958,54.886374 -1.8255408,28.475832 -41.010417,58.208333 l 12.294795,-47.626821 -40.386082,-28.079184 49.0951,-3.024453 14.2249046,-47.086391 18.0476454,45.757608 49.177557,-1.021807 z"
       transform="rotate(2.43622,-5.1448353,-6.0158258)" />
  </g>
</svg>
