<?xml version="1.0" encoding="UTF-8" standalone="no"?>
<svg
   xmlns:dc="http://purl.org/dc/elements/1.1/"
   xmlns:cc="http://creativecommons.org/ns#"
   xmlns:rdf="http://www.w3.org/1999/02/22-rdf-syntax-ns#"
   xmlns:svg="http://www.w3.org/2000/svg"
   xmlns="http://www.w3.org/2000/svg"
   width="2.6458335mm"
   height="2.645824mm"
   viewBox="0 0 2.6458335 2.6458239"
   version="1.1"
   id="svg8">
  <defs
     id="defs2" />
  <metadata
     id="metadata5">
    <rdf:RDF>
      <cc:Work
         rdf:about="">
        <dc:format>image/svg+xml</dc:format>
        <dc:type
           rdf:resource="http://purl.org/dc/dcmitype/StillImage" />
        <dc:title></dc:title>
      </cc:Work>
    </rdf:RDF>
  </metadata>
  <g
     id="layer1">
    <path
       style="fill:#077fcf;fill-opacity:1;fill-rule:evenodd;stroke:#077fcf;stroke-width:0.529167;stroke-linecap:round;stroke-linejoin:round;stroke-miterlimit:4;stroke-dasharray:none;stroke-opacity:1"
       d="M 0.2645835,0.79374355 1.3229167,0.26458333 2.3812502,0.79374355 H 0.2645835"
       id="path835" />
    <path
       style="fill:none;fill-rule:evenodd;stroke:#077fcf;stroke-width:0.529167;stroke-linecap:round;stroke-linejoin:round;stroke-miterlimit:4;stroke-dasharray:none;stroke-opacity:1"
       d="M 0.26458349,2.3812435 H 2.3812501"
       id="path868" />
    <path
       style="fill:none;fill-rule:evenodd;stroke:#077fcf;stroke-width:0.264583px;stroke-linecap:round;stroke-linejoin:round;stroke-opacity:1"
       d="m 0.52916683,1.3229102 -10e-9,0.5291667"
       id="path878" />
    <path
       style="fill:none;fill-rule:evenodd;stroke:#077fcf;stroke-width:0.264583px;stroke-linecap:round;stroke-linejoin:round;stroke-opacity:1"
       d="M 1.5875002,1.3229102 V 1.8520769"
       id="path882" />
    <path
       style="fill:none;fill-rule:evenodd;stroke:#077fcf;stroke-width:0.264583px;stroke-linecap:round;stroke-linejoin:round;stroke-opacity:1"
       d="M 2.1166668,1.3229102 V 1.8520769"
       id="path884" />
    <path
       style="fill:none;fill-rule:evenodd;stroke:#077fcf;stroke-width:0.264583px;stroke-linecap:round;stroke-linejoin:round;stroke-opacity:1"
       d="M 1.0583335,1.3229102 V 1.8520769"
       id="path882-6" />
  </g>
</svg>
