<?xml version="1.0" encoding="UTF-8" standalone="no"?>
<!-- Created with Inkscape (http://www.inkscape.org/) -->

<svg
   width="54.073795mm"
   height="16.933332mm"
   viewBox="0 0 54.073797 16.933333"
   version="1.1"
   id="svg5"
   xmlns="http://www.w3.org/2000/svg"
   xmlns:svg="http://www.w3.org/2000/svg">
  <defs
     id="defs2" />
  <path
     id="path5100"
     style="fill:#ffffff;stroke-width:0.264583"
     d="M 2.1166656,2.1166673 H 14.816665 V 14.816667 H 2.1166656 Z" />
  <path
     id="path5097"
     style="fill:#f50101;fill-opacity:1;fill-rule:evenodd;stroke:none;stroke-width:1.5875;stroke-linecap:round;stroke-linejoin:round;stroke-opacity:1;paint-order:stroke fill markers"
     d="M 4.233333,0 C 1.888067,0 0,1.888067 0,4.2333333 V 12.7 c 0,2.345266 1.888067,4.233333 4.233333,4.233333 h 8.46615 c 2.345266,0 4.233333,-1.888067 4.233333,-4.233333 V 4.2333333 C 16.932816,1.888067 15.044749,0 12.699483,0 Z m 1.058334,4.2333333 h 6.35 c 0.586316,0 1.058333,0.4720166 1.058333,1.0583333 V 11.641667 C 12.7,12.227983 12.227983,12.7 11.641667,12.7 v 0.515731 a 0.52916663,0.52916663 0 0 0 0,5.29e-4 0.52916663,0.52916663 0 0 0 0,5.29e-4 0.52916663,0.52916663 0 0 0 0,5.29e-4 0.52916663,0.52916663 0 0 0 0,5.29e-4 0.52916663,0.52916663 0 0 0 0,5.3e-4 0.52916663,0.52916663 0 0 0 0,5.29e-4 0.52916663,0.52916663 0 0 0 0,5.29e-4 0.52916663,0.52916663 0 0 0 0,5.29e-4 0.52916663,0.52916663 0 0 0 0,5.29e-4 0.52916663,0.52916663 0 0 0 0,5.29e-4 0.52916663,0.52916663 0 0 0 0,5.3e-4 0.52916663,0.52916663 0 0 0 0,5.29e-4 0.52916663,0.52916663 0 0 0 0,5.29e-4 0.52916663,0.52916663 0 0 0 0,5.29e-4 0.52916663,0.52916663 0 0 0 0,5.29e-4 0.52916663,0.52916663 0 0 0 0,5.29e-4 0.52916663,0.52916663 0 0 0 0,5.3e-4 0.52916663,0.52916663 0 0 0 0,5.29e-4 0.52916663,0.52916663 0 0 0 0,5.29e-4 0.52916663,0.52916663 0 0 0 0,5.29e-4 0.52916663,0.52916663 0 0 0 0,5.29e-4 0.52916663,0.52916663 0 0 0 0,5.29e-4 0.52916663,0.52916663 0 0 0 0,5.3e-4 0.52916663,0.52916663 0 0 0 0,5.29e-4 0.52916663,0.52916663 0 0 0 0,5.29e-4 0.52916663,0.52916663 0 0 0 0,5.29e-4 0.52916663,0.52916663 0 0 1 -0.529167,0.529167 0.52916663,0.52916663 0 0 1 -0.529167,-0.529167 V 12.7 H 6.35 v 0.515731 a 0.52916663,0.52916663 0 0 0 0,5.29e-4 0.52916663,0.52916663 0 0 0 0,5.29e-4 0.52916663,0.52916663 0 0 0 0,5.29e-4 0.52916663,0.52916663 0 0 0 0,5.29e-4 0.52916663,0.52916663 0 0 0 0,5.3e-4 0.52916663,0.52916663 0 0 0 0,5.29e-4 0.52916663,0.52916663 0 0 0 0,5.29e-4 0.52916663,0.52916663 0 0 0 0,5.29e-4 0.52916663,0.52916663 0 0 0 0,5.29e-4 0.52916663,0.52916663 0 0 0 0,5.29e-4 0.52916663,0.52916663 0 0 0 0,5.3e-4 0.52916663,0.52916663 0 0 0 0,5.29e-4 0.52916663,0.52916663 0 0 0 0,5.29e-4 0.52916663,0.52916663 0 0 0 0,5.29e-4 0.52916663,0.52916663 0 0 0 0,5.29e-4 0.52916663,0.52916663 0 0 0 0,5.29e-4 0.52916663,0.52916663 0 0 0 0,5.3e-4 0.52916663,0.52916663 0 0 0 0,5.29e-4 0.52916663,0.52916663 0 0 0 0,5.29e-4 0.52916663,0.52916663 0 0 0 0,5.29e-4 0.52916663,0.52916663 0 0 0 0,5.29e-4 0.52916663,0.52916663 0 0 0 0,5.29e-4 0.52916663,0.52916663 0 0 0 0,5.3e-4 0.52916663,0.52916663 0 0 0 0,5.29e-4 0.52916663,0.52916663 0 0 0 0,5.29e-4 0.52916663,0.52916663 0 0 0 0,5.29e-4 0.52916663,0.52916663 0 0 1 -0.529167,0.529167 0.52916663,0.52916663 0 0 1 -0.529166,-0.529167 v -0.529167 c -0.586317,0 -1.058334,-0.472016 -1.058334,-1.058333 V 5.2916666 c 0,-0.5863167 0.472017,-1.0583333 1.058334,-1.0583333 z m 0.529166,1.0583333 c -0.293158,0 -0.529166,0.2360083 -0.529166,0.5291667 v 3.1749999 c 0,0.2931583 0.236008,0.5291667 0.529166,0.5291667 H 11.1125 c 0.293158,0 0.529167,-0.2360084 0.529167,-0.5291667 V 5.8208333 c 0,-0.2931584 -0.236009,-0.5291667 -0.529167,-0.5291667 z m 0,5.2916664 A 0.52916663,0.52916663 0 0 0 5.291667,11.1125 0.52916663,0.52916663 0 0 0 5.820833,11.641667 0.52916663,0.52916663 0 0 0 6.35,11.1125 0.52916663,0.52916663 0 0 0 5.820833,10.583333 Z m 5.291667,0 A 0.52916663,0.52916663 0 0 0 10.583333,11.1125 0.52916663,0.52916663 0 0 0 11.1125,11.641667 0.52916663,0.52916663 0 0 0 11.641667,11.1125 0.52916663,0.52916663 0 0 0 11.1125,10.583333 Z" />
  <g
     aria-label="Najdispoj"
     id="text2857"
     style="font-weight:600;font-size:7.06902px;line-height:0.0196361px;font-family:Poppins;-inkscape-font-specification:'Poppins Semi-Bold';letter-spacing:0px;word-spacing:0px;stroke-width:2.27218;stroke-linecap:round;stroke-linejoin:round;paint-order:stroke fill markers"
     transform="translate(2.116668,4.2333331)" />
  <g
     aria-label="Najdispoj"
     id="text870"
     style="font-weight:bold;font-size:7.05556px;font-family:Poppins;-inkscape-font-specification:'Poppins Bold';stroke-width:0.264583"
     transform="translate(6.6666666e-7,0.5291665)">
    <path
       d="M 25.378835,9.7648926 H 24.391057 L 22.154445,6.3852793 V 9.7648926 H 21.166666 V 4.8330561 h 0.987779 l 2.236612,3.3866688 V 4.8330561 h 0.987778 z"
       id="path5094" />
    <path
       d="m 26.098507,7.7963913 q 0,-0.592667 0.232834,-1.0512784 0.239889,-0.4586115 0.642055,-0.7055561 0.409223,-0.2469446 0.910168,-0.2469446 0.437444,0 0.762,0.176389 0.331612,0.176389 0.529167,0.4445003 V 5.8561123 h 0.994834 V 9.7648926 H 29.174731 V 9.1933922 q -0.1905,0.2751669 -0.529167,0.4586114 -0.331611,0.176389 -0.769056,0.176389 -0.493889,0 -0.903112,-0.2540001 Q 26.57123,9.3203923 26.331341,8.8617809 26.098507,8.3961139 26.098507,7.7963913 Z m 3.076224,0.014111 q 0,-0.3598335 -0.141111,-0.6138337 -0.141111,-0.2610557 -0.381,-0.3951114 -0.239889,-0.1411112 -0.515056,-0.1411112 -0.275167,0 -0.508,0.1340557 -0.232834,0.1340556 -0.381001,0.3951113 -0.141111,0.2540002 -0.141111,0.6067782 0,0.352778 0.141111,0.6208893 0.148167,0.2610557 0.381001,0.4021669 0.239889,0.1411112 0.508,0.1411112 0.275167,0 0.515056,-0.1340556 0.239889,-0.1411112 0.381,-0.3951114 0.141111,-0.2610557 0.141111,-0.6208893 z"
       id="path5091" />
    <path
       d="m 31.637118,5.3904453 q -0.268111,0 -0.4445,-0.1622779 -0.169334,-0.1693334 -0.169334,-0.416278 0,-0.2469446 0.169334,-0.4092225 0.176389,-0.1693334 0.4445,-0.1693334 0.261056,0 0.430389,0.1693334 0.169334,0.1622779 0.169334,0.4092225 0,0.2469446 -0.169334,0.416278 -0.169333,0.1622779 -0.430389,0.1622779 z m 0.486834,5.0165037 q 0,0.649111 -0.324556,0.931333 -0.3175,0.289278 -0.917223,0.289278 h -0.437445 v -0.839611 h 0.282223 q 0.225778,0 0.3175,-0.09172 0.09172,-0.08467 0.09172,-0.282223 V 5.8561123 h 0.987779 z"
       id="path5088" />
    <path
       d="m 32.843618,7.7963913 q 0,-0.592667 0.232833,-1.0512784 0.23989,-0.4586115 0.649112,-0.7055561 0.409223,-0.2469446 0.910167,-0.2469446 0.381001,0 0.726723,0.1693335 0.345722,0.1622779 0.550334,0.4374447 V 4.5437781 h 1.001889 v 5.2211145 h -1.001889 v -0.578556 q -0.183445,0.289278 -0.515056,0.465667 -0.331612,0.176389 -0.769056,0.176389 -0.493889,0 -0.903112,-0.2540001 Q 33.316341,9.3203923 33.076451,8.8617809 32.843618,8.3961139 32.843618,7.7963913 Z m 3.076224,0.014111 q 0,-0.3598335 -0.141111,-0.6138337 -0.141111,-0.2610557 -0.381,-0.3951114 -0.239889,-0.1411112 -0.515056,-0.1411112 -0.275167,0 -0.508,0.1340557 -0.232834,0.1340556 -0.381001,0.3951113 -0.141111,0.2540002 -0.141111,0.6067782 0,0.352778 0.141111,0.6208893 0.148167,0.2610557 0.381001,0.4021669 0.239889,0.1411112 0.508,0.1411112 0.275167,0 0.515056,-0.1340556 0.239889,-0.1411112 0.381,-0.3951114 0.141111,-0.2610557 0.141111,-0.6208893 z"
       id="path5085" />
    <path
       d="m 38.38223,5.3904453 q -0.261056,0 -0.437445,-0.1622779 -0.169334,-0.1693334 -0.169334,-0.416278 0,-0.2469446 0.169334,-0.4092225 0.176389,-0.1693334 0.437445,-0.1693334 0.261055,0 0.430389,0.1693334 0.176389,0.1622779 0.176389,0.4092225 0,0.2469446 -0.176389,0.416278 -0.169334,0.1622779 -0.430389,0.1622779 z m 0.486833,0.465667 V 9.7648926 H 37.881285 V 5.8561123 Z"
       id="path5082" />
    <path
       d="m 41.338508,9.8283926 q -0.479778,0 -0.860778,-0.1693334 -0.381,-0.176389 -0.606778,-0.4727226 -0.218722,-0.2963335 -0.239889,-0.656167 h 0.994834 q 0.02822,0.2257779 0.218722,0.3739446 0.197556,0.1481668 0.486834,0.1481668 0.282222,0 0.437445,-0.112889 0.162277,-0.1128889 0.162277,-0.2892779 0,-0.1905001 -0.197555,-0.2822224 Q 41.54312,8.2691138 41.119786,8.1562249 40.682341,8.0503915 40.400119,7.9375025 40.124952,7.8246135 39.920341,7.5917801 39.722785,7.3589466 39.722785,6.9638352 q 0,-0.3245558 0.183445,-0.592667 0.1905,-0.2681113 0.536222,-0.4233336 0.352778,-0.1552224 0.825501,-0.1552224 0.6985,0 1.114778,0.352778 0.416278,0.3457225 0.458612,0.9383895 H 41.895898 Q 41.874731,6.8509463 41.698342,6.7168906 41.529009,6.5757794 41.239731,6.5757794 q -0.268112,0 -0.416279,0.098778 -0.141111,0.098778 -0.141111,0.2751669 0,0.1975557 0.197556,0.3033891 0.197556,0.098778 0.613834,0.2046112 0.423333,0.1058334 0.6985,0.2187224 0.275167,0.1128889 0.472723,0.352778 0.204611,0.2328335 0.211666,0.6208893 0,0.3386669 -0.1905,0.6067782 -0.183444,0.2681112 -0.536222,0.4233336 -0.345723,0.1481667 -0.81139,0.1481665 z"
       id="path5079" />
    <path
       d="m 44.675788,6.4205571 q 0.1905,-0.2681113 0.522111,-0.4445003 0.338667,-0.1834446 0.769056,-0.1834446 0.500945,0 0.903112,0.2469446 0.409222,0.2469446 0.642056,0.7055561 0.239889,0.4515558 0.239889,1.0512784 0,0.5997226 -0.239889,1.0653896 -0.232834,0.4586114 -0.642056,0.7126116 -0.402167,0.2540001 -0.903112,0.2540001 -0.430389,0 -0.762,-0.176389 -0.324556,-0.176389 -0.529167,-0.4445003 V 11.62756 H 43.688009 V 5.8561123 h 0.987779 z m 2.067279,1.3758342 q 0,-0.352778 -0.148167,-0.6067782 -0.141111,-0.2610557 -0.381,-0.3951113 -0.232834,-0.1340557 -0.508,-0.1340557 -0.268112,0 -0.508001,0.1411112 -0.232833,0.1340557 -0.381,0.3951114 -0.141111,0.2610557 -0.141111,0.6138337 0,0.352778 0.141111,0.6138338 0.148167,0.2610557 0.381,0.4021669 0.239889,0.1340556 0.508001,0.1340556 0.275166,0 0.508,-0.1411112 0.239889,-0.1411112 0.381,-0.4021669 0.148167,-0.2610557 0.148167,-0.6208893 z"
       id="path5076" />
    <path
       d="m 50.207344,9.8283926 q -0.564445,0 -1.016001,-0.2469446 -0.451556,-0.2540001 -0.712611,-0.7126116 -0.254001,-0.4586114 -0.254001,-1.058334 0,-0.5997226 0.261056,-1.058334 0.268111,-0.4586114 0.726723,-0.705556 0.458611,-0.2540002 1.023056,-0.2540002 0.564445,0 1.023056,0.2540002 0.458612,0.2469446 0.719667,0.705556 0.268112,0.4586114 0.268112,1.058334 0,0.5997226 -0.275167,1.058334 -0.268112,0.4586115 -0.733778,0.7126116 -0.458612,0.2469446 -1.030112,0.2469446 z m 0,-0.8607783 q 0.268111,0 0.500945,-0.1270001 0.239889,-0.1340556 0.381,-0.3951114 0.141111,-0.2610557 0.141111,-0.6350004 0,-0.5573892 -0.296334,-0.8537227 -0.289278,-0.3033891 -0.712611,-0.3033891 -0.423334,0 -0.712612,0.3033891 -0.282222,0.2963335 -0.282222,0.8537227 0,0.5573893 0.275167,0.8607784 0.282222,0.2963335 0.705556,0.2963335 z"
       id="path5073" />
    <path
       d="m 53.474072,5.3904453 q -0.268111,0 -0.4445,-0.1622779 -0.169334,-0.1693334 -0.169334,-0.416278 0,-0.2469446 0.169334,-0.4092225 0.176389,-0.1693334 0.4445,-0.1693334 0.261056,0 0.430389,0.1693334 0.169334,0.1622779 0.169334,0.4092225 0,0.2469446 -0.169334,0.416278 -0.169333,0.1622779 -0.430389,0.1622779 z m 0.486834,5.0165037 q 0,0.649111 -0.324556,0.931333 -0.3175,0.289278 -0.917223,0.289278 h -0.437444 v -0.839611 h 0.282222 q 0.225778,0 0.3175,-0.09172 0.09172,-0.08467 0.09172,-0.282223 V 5.8561123 h 0.987779 z"
       id="path5070" />
  </g>
</svg>
