<?xml version="1.0" encoding="UTF-8" standalone="no"?>
<svg
   xmlns:dc="http://purl.org/dc/elements/1.1/"
   xmlns:cc="http://creativecommons.org/ns#"
   xmlns:rdf="http://www.w3.org/1999/02/22-rdf-syntax-ns#"
   xmlns:svg="http://www.w3.org/2000/svg"
   xmlns="http://www.w3.org/2000/svg"
   xmlns:sodipodi="http://sodipodi.sourceforge.net/DTD/sodipodi-0.dtd"
   xmlns:inkscape="http://www.inkscape.org/namespaces/inkscape"
   width="85.001335"
   height="85.073456"
   viewBox="0 0 22.489936 22.50902"
   version="1.1"
   id="icon_origin"
   sodipodi:docname="origin-white.svg"
   inkscape:version="1.0.2 (e86c870, 2021-01-15)">
  <sodipodi:namedview
     pagecolor="#ffffff"
     bordercolor="#666666"
     borderopacity="1"
     objecttolerance="10"
     gridtolerance="10"
     guidetolerance="10"
     inkscape:pageopacity="0"
     inkscape:pageshadow="2"
     inkscape:window-width="2400"
     inkscape:window-height="1271"
     id="namedview13"
     showgrid="false"
     fit-margin-top="0"
     fit-margin-left="0"
     fit-margin-right="0"
     fit-margin-bottom="0"
     inkscape:zoom="3.4465698"
     inkscape:cx="125.55959"
     inkscape:cy="123.15259"
     inkscape:window-x="-9"
     inkscape:window-y="-9"
     inkscape:window-maximized="1"
     inkscape:current-layer="icon_origin" />
  <style
     id="style2">
  .color_fill {
    fill: #FFF;
  }
  </style>
  <defs
     id="defs4" />
  <metadata
     id="metadata6">
    <rdf:RDF>
      <cc:Work
         rdf:about="">
        <dc:format>image/svg+xml</dc:format>
        <dc:type
           rdf:resource="http://purl.org/dc/dcmitype/StillImage" />
        <dc:title></dc:title>
      </cc:Work>
    </rdf:RDF>
  </metadata>
  <g
     transform="translate(1.3502905e-4,-0.64820695)"
     id="g10">
    <path
       id="flag"
       class="color_fill"
       d="M 19.923828,0.00195312 A 5.0004997,5.0004997 0 0 0 16.765625,1.1972656 5.0004997,5.0004997 0 0 0 16.431641,1.5 5.0004997,5.0004997 0 0 0 16.380859,1.5527344 5.0004997,5.0004997 0 0 0 16.314453,1.6269531 5.0004997,5.0004997 0 0 0 15,5.8632812 V 45.068359 a 5.0004997,5.0004997 0 0 0 4.998047,5.00586 h 60 a 5.0004997,5.0004997 0 0 0 4.472656,-7.242188 L 75.591797,25.070312 84.470703,7.3105469 A 5.0004997,5.0004997 0 0 0 79.998047,0.06835937 h -59.1875 A 5.0004997,5.0004997 0 0 0 19.923828,0.00195312 Z"
       transform="matrix(0.26458334,0,0,0.26458334,-1.3231859e-4,0.64782505)" />
    <path
       id="pole"
       class="color_fill"
       d="M 1.3027344,0.6484375 A 1.3230489,1.3230489 0 0 0 0,1.9902344 V 21.833984 a 1.3232422,1.3232422 0 1 0 2.6464844,0 V 1.9902344 a 1.3230489,1.3230489 0 0 0 -1.34375,-1.3417969 z" />
  </g>
</svg>
